[
  {
    "model": "domainlibraries.targetsegment",
    "pk": 1,
    "fields": {
      "created_date": "2018-05-25T06:16:06.831Z",
      "created_by": "saikatdey",
      "updated_date": null,
      "updated_by": null,
      "target_segment": "People"
    }
  },
  {
    "model": "domainlibraries.targetsegment",
    "pk": 2,
    "fields": {
      "created_date": "2018-05-25T06:16:30.906Z",
      "created_by": "saikatdey",
      "updated_date": null,
      "updated_by": null,
      "target_segment": "Institution"
    }
  },
  {
    "model": "domainlibraries.targetsegment",
    "pk": 3,
    "fields": {
      "created_date": "2018-05-25T06:16:30.906Z",
      "created_by": "saikatdey",
      "updated_date": null,
      "updated_by": null,
      "target_segment": "Environment"
    }
  }
]
