[
  {
    "model": "domainlibraries.frequency",
    "pk": 1,
    "fields": {
      "created_date": "2018-05-28T08:51:05.320Z",
      "created_by": "saikatdey",
      "updated_date": null,
      "updated_by": null,
      "frequency": "daily"
    }
  },
  {
    "model": "domainlibraries.frequency",
    "pk": 2,
    "fields": {
      "created_date": "2018-05-28T08:51:05.320Z",
      "created_by": "saikatdey",
      "updated_date": null,
      "updated_by": null,
      "frequency": "weekly"
    }
  },
  {
    "model": "domainlibraries.frequency",
    "pk": 3,
    "fields": {
      "created_date": "2018-05-28T08:51:05.320Z",
      "created_by": "saikatdey",
      "updated_date": null,
      "updated_by": null,
      "frequency": "fortnightly"
    }
  },
  {
    "model": "domainlibraries.frequency",
    "pk": 4,
    "fields": {
      "created_date": "2018-05-28T08:51:05.320Z",
      "created_by": "saikatdey",
      "updated_date": null,
      "updated_by": null,
      "frequency": "monthly"
    }
  },
  {
    "model": "domainlibraries.frequency",
    "pk": 5,
    "fields": {
      "created_date": "2018-05-28T08:51:05.320Z",
      "created_by": "saikatdey",
      "updated_date": null,
      "updated_by": null,
      "frequency": "quarterly"
    }
  },
  {
    "model": "domainlibraries.frequency",
    "pk": 6,
    "fields": {
      "created_date": "2018-05-28T08:51:05.320Z",
      "created_by": "saikatdey",
      "updated_date": null,
      "updated_by": null,
      "frequency": "semiannually"
    }
  },
  {
    "model": "domainlibraries.frequency",
    "pk": 7,
    "fields": {
      "created_date": "2018-05-28T08:51:05.320Z",
      "created_by": "saikatdey",
      "updated_date": null,
      "updated_by": null,
      "frequency": "annually"
    }
  },
  {
    "model": "domainlibraries.frequency",
    "pk": 8,
    "fields": {
      "created_date": "2019-05-08T07:56:55Z",
      "created_by": "sattva-admin",
      "updated_date": "2019-05-08T07:57:02Z",
      "updated_by": "sattva-admin",
      "frequency": "bi-monthly"
    }
  }
]
