[
  {
    "model": "domainlibraries.csrcompliancechecklist",
    "pk": 1,
    "fields": {
      "created_date": "2018-06-07T05:01:03.806Z",
      "created_by": "saikatdey",
      "updated_date": null,
      "updated_by": null,
      "area": "Revenue",
      "indicator": "The company is a networth of 500 crore"
    }
  },
  {
    "model": "domainlibraries.csrcompliancechecklist",
    "pk": 2,
    "fields": {
      "created_date": "2018-06-07T05:01:03.806Z",
      "created_by": "saikatdey",
      "updated_date": null,
      "updated_by": null,
      "area": "Revenue",
      "indicator": "The company is a turnover of 1000 crore"
    }
  },
  {
    "model": "domainlibraries.csrcompliancechecklist",
    "pk": 3,
    "fields": {
      "created_date": "2018-06-07T05:01:03.806Z",
      "created_by": "saikatdey",
      "updated_date": null,
      "updated_by": null,
      "area": "Revenue",
      "indicator": "The company is a net-profit of 5 crore"
    }
  },
  {
    "model": "domainlibraries.csrcompliancechecklist",
    "pk": 4,
    "fields": {
      "created_date": "2018-06-07T05:01:03.806Z",
      "created_by": "saikatdey",
      "updated_date": null,
      "updated_by": null,
      "area": "Revenue",
      "indicator": "The company is a is not adding the surplus arising out of CSR project in business profits"
    }
  },
  {
    "model": "domainlibraries.csrcompliancechecklist",
    "pk": 5,
    "fields": {
      "created_date": "2018-06-07T05:01:03.806Z",
      "created_by": "saikatdey",
      "updated_date": null,
      "updated_by": null,
      "area": "Board",
      "indicator": "The company has a CSR Committee"
    }
  },
  {
    "model": "domainlibraries.csrcompliancechecklist",
    "pk": 6,
    "fields": {
      "created_date": "2018-06-07T05:01:03.806Z",
      "created_by": "saikatdey",
      "updated_date": null,
      "updated_by": null,
      "area": "Board",
      "indicator": "The company has a board resolution approving the composition of the CSR committee"
    }
  },
  {
    "model": "domainlibraries.csrcompliancechecklist",
    "pk": 7,
    "fields": {
      "created_date": "2018-06-07T05:01:03.806Z",
      "created_by": "saikatdey",
      "updated_date": null,
      "updated_by": null,
      "area": "Board",
      "indicator": "The company has a committee with 3 or more director out of which at least one director is an independent director"
    }
  },
  {
    "model": "domainlibraries.csrcompliancechecklist",
    "pk": 8,
    "fields": {
      "created_date": "2018-06-07T05:01:03.806Z",
      "created_by": "saikatdey",
      "updated_date": null,
      "updated_by": null,
      "area": "Board",
      "indicator": "The company is a unlisted public company/Private Company with a CSR committee without an independent director"
    }
  },
  {
    "model": "domainlibraries.csrcompliancechecklist",
    "pk": 9,
    "fields": {
      "created_date": "2018-06-07T05:01:03.806Z",
      "created_by": "saikatdey",
      "updated_date": null,
      "updated_by": null,
      "area": "Board",
      "indicator": "The company is a private company with two directors on board to be part of CSR committee"
    }
  },
  {
    "model": "domainlibraries.csrcompliancechecklist",
    "pk": 10,
    "fields": {
      "created_date": "2018-06-07T05:01:03.806Z",
      "created_by": "saikatdey",
      "updated_date": null,
      "updated_by": null,
      "area": "Board",
      "indicator": "The company is a foreign company, at least two persons of which one person shall be as specified under clause (d) of sub-section (1) of section 380 of the Act and another person shall be nominated by the foreign company"
    }
  },
  {
    "model": "domainlibraries.csrcompliancechecklist",
    "pk": 11,
    "fields": {
      "created_date": "2018-06-07T05:01:03.806Z",
      "created_by": "saikatdey",
      "updated_date": null,
      "updated_by": null,
      "area": "Policy",
      "indicator": "The company has a CSR policy"
    }
  },
  {
    "model": "domainlibraries.csrcompliancechecklist",
    "pk": 12,
    "fields": {
      "created_date": "2018-06-07T05:01:03.806Z",
      "created_by": "saikatdey",
      "updated_date": null,
      "updated_by": null,
      "area": "Policy",
      "indicator": "CSR Policy indicate activities to be undertaken under Schedule VII"
    }
  },
  {
    "model": "domainlibraries.csrcompliancechecklist",
    "pk": 13,
    "fields": {
      "created_date": "2018-06-07T05:01:03.806Z",
      "created_by": "saikatdey",
      "updated_date": null,
      "updated_by": null,
      "area": "Policy",
      "indicator": "We have a monitoring mechanism for CSR policy"
    }
  },
  {
    "model": "domainlibraries.csrcompliancechecklist",
    "pk": 14,
    "fields": {
      "created_date": "2018-06-07T05:01:03.806Z",
      "created_by": "saikatdey",
      "updated_date": null,
      "updated_by": null,
      "area": "Spend",
      "indicator": "We are spending 2% of average net profits during the three immediate preceding financial year"
    }
  },
  {
    "model": "domainlibraries.csrcompliancechecklist",
    "pk": 15,
    "fields": {
      "created_date": "2018-06-07T05:01:03.806Z",
      "created_by": "saikatdey",
      "updated_date": null,
      "updated_by": null,
      "area": "Spend",
      "indicator": "If we have failed to spend the CSR budget, we have reported under clause (o) of sub-section (3) of section 134"
    }
  },
  {
    "model": "domainlibraries.csrcompliancechecklist",
    "pk": 16,
    "fields": {
      "created_date": "2018-06-07T05:01:03.806Z",
      "created_by": "saikatdey",
      "updated_date": null,
      "updated_by": null,
      "area": "Spend",
      "indicator": "We have specified reason for not spending the CSR amount"
    }
  },
  {
    "model": "domainlibraries.csrcompliancechecklist",
    "pk": 17,
    "fields": {
      "created_date": "2018-06-07T05:01:03.806Z",
      "created_by": "saikatdey",
      "updated_date": null,
      "updated_by": null,
      "area": "Spend",
      "indicator": "We dont contribute to any political party as part of the CSR"
    }
  },
  {
    "model": "domainlibraries.csrcompliancechecklist",
    "pk": 18,
    "fields": {
      "created_date": "2018-06-07T05:01:03.806Z",
      "created_by": "saikatdey",
      "updated_date": null,
      "updated_by": null,
      "area": "Spend",
      "indicator": "Capacity building of our implementing NGO do not exceed 5% of total CSR expenditure in the financial year"
    }
  },
  {
    "model": "domainlibraries.csrcompliancechecklist",
    "pk": 19,
    "fields": {
      "created_date": "2018-06-07T05:01:03.806Z",
      "created_by": "saikatdey",
      "updated_date": null,
      "updated_by": null,
      "area": "Programs",
      "indicator": "CSR activities are undertaken as per stated Schedule VII"
    }
  },
  {
    "model": "domainlibraries.csrcompliancechecklist",
    "pk": 20,
    "fields": {
      "created_date": "2018-06-07T05:01:03.806Z",
      "created_by": "saikatdey",
      "updated_date": null,
      "updated_by": null,
      "area": "Programs",
      "indicator": "The NGO partner has a track record of three years in undertaking similar programs"
    }
  },
  {
    "model": "domainlibraries.csrcompliancechecklist",
    "pk": 21,
    "fields": {
      "created_date": "2018-06-07T05:01:03.806Z",
      "created_by": "saikatdey",
      "updated_date": null,
      "updated_by": null,
      "area": "Programs",
      "indicator": "CSR has fund utilisation certificate from NGO Partners for programs/Project it is implementing"
    }
  },
  {
    "model": "domainlibraries.csrcompliancechecklist",
    "pk": 22,
    "fields": {
      "created_date": "2018-06-07T05:01:03.806Z",
      "created_by": "saikatdey",
      "updated_date": null,
      "updated_by": null,
      "area": "Programs",
      "indicator": "Company collaborate with other companies for their CSR"
    }
  },
  {
    "model": "domainlibraries.csrcompliancechecklist",
    "pk": 23,
    "fields": {
      "created_date": "2018-06-07T05:01:03.806Z",
      "created_by": "saikatdey",
      "updated_date": null,
      "updated_by": null,
      "area": "Programs",
      "indicator": "Our CSR projects dont benefit employees or their families"
    }
  },
  {
    "model": "domainlibraries.csrcompliancechecklist",
    "pk": 24,
    "fields": {
      "created_date": "2018-06-07T05:01:03.806Z",
      "created_by": "saikatdey",
      "updated_date": null,
      "updated_by": null,
      "area": "Programs",
      "indicator": "Our CSR policy has a monitoring process of programs"
    }
  },
  {
    "model": "domainlibraries.csrcompliancechecklist",
    "pk": 25,
    "fields": {
      "created_date": "2018-06-07T05:01:03.806Z",
      "created_by": "saikatdey",
      "updated_date": null,
      "updated_by": null,
      "area": "Reporting",
      "indicator": "CSR Policy contents are disclosed on the company website"
    }
  },
  {
    "model": "domainlibraries.csrcompliancechecklist",
    "pk": 26,
    "fields": {
      "created_date": "2018-06-07T05:01:03.806Z",
      "created_by": "saikatdey",
      "updated_date": null,
      "updated_by": null,
      "area": "Reporting",
      "indicator": "CSR Policy contents are disclosed in the Annual Report"
    }
  },
  {
    "model": "domainlibraries.csrcompliancechecklist",
    "pk": 27,
    "fields": {
      "created_date": "2018-06-07T05:01:03.806Z",
      "created_by": "saikatdey",
      "updated_date": null,
      "updated_by": null,
      "area": "Reporting",
      "indicator": "Activities of CSR are reported in the annual report"
    }
  },
  {
    "model": "domainlibraries.csrcompliancechecklist",
    "pk": 28,
    "fields": {
      "created_date": "2018-06-07T05:01:03.806Z",
      "created_by": "saikatdey",
      "updated_date": null,
      "updated_by": null,
      "area": "Reporting",
      "indicator": "The company is a foreign company with balance sheet filed under subclause (b) of sub-section (1) of section 381 shall contain an Annexure regarding report on CSR"
    }
  },
  {
    "model": "domainlibraries.csrcompliancechecklist",
    "pk": 29,
    "fields": {
      "created_date": "2018-06-07T05:01:03.806Z",
      "created_by": "saikatdey",
      "updated_date": null,
      "updated_by": null,
      "area": "Reporting",
      "indicator": "The company is a foreign company with balance sheet and profit and loss account, contain CSR particulars and including or having annexed or attached documents regarding CSR"
    }
  },
  {
    "model": "domainlibraries.csrcompliancechecklist",
    "pk": 30,
    "fields": {
      "created_date": "2018-06-07T05:01:03.806Z",
      "created_by": "saikatdey",
      "updated_date": null,
      "updated_by": null,
      "area": "Reporting",
      "indicator": "The company is a foreign company with a copy of documents sent to the Registrar"
    }
  }
]
