[
  {
    "model": "domainlibraries.entitytype",
    "pk": 1,
    "fields": {
      "created_date": "2018-07-02T05:00:25.288Z",
      "created_by": "saikatdey",
      "updated_date": null,
      "updated_by": null,
      "entity_type": "Beneficiary"
    }
  },
  {
    "model": "domainlibraries.entitytype",
    "pk": 2,
    "fields": {
      "created_date": "2018-07-02T05:00:36.034Z",
      "created_by": "saikatdey",
      "updated_date": null,
      "updated_by": null,
      "entity_type": "Institution"
    }
  },
  {
    "model": "domainlibraries.entitytype",
    "pk": 3,
    "fields": {
      "created_date": "2018-07-02T05:00:41.475Z",
      "created_by": "saikatdey",
      "updated_date": null,
      "updated_by": null,
      "entity_type": "Environment"
    }
  }
]
