[
  {
    "model": "domainlibraries.riskowner",
    "pk": 1,
    "fields": {
      "created_date": "2018-08-13T06:39:04.880Z",
      "created_by": "saikatdey",
      "updated_date": null,
      "updated_by": null,
      "risk_owner": "Client"
    }
  },
  {
    "model": "domainlibraries.riskowner",
    "pk": 2,
    "fields": {
      "created_date": "2018-08-13T06:39:20.592Z",
      "created_by": "saikatdey",
      "updated_date": null,
      "updated_by": null,
      "risk_owner": "NGO"
    }
  },
  {
    "model": "domainlibraries.riskowner",
    "pk": 3,
    "fields": {
      "created_date": "2018-08-13T06:39:20.592Z",
      "created_by": "saikatdey",
      "updated_date": null,
      "updated_by": null,
      "risk_owner": "Sattva"
    }
  },
  {
    "model": "domainlibraries.riskowner",
    "pk": 4,
    "fields": {
      "created_date": "2018-08-13T06:39:28.561Z",
      "created_by": "saikatdey",
      "updated_date": null,
      "updated_by": null,
      "risk_owner": "All"
    }
  }
]
