project_name,milestone,output_indicator,outcome_indicator,start_date,end_date,frequency,planned_output,actual_output,planned_outcome,actual_outcome,output_calculation,outcome_calculation
akshita2,mile1,Downloads,,1/4/2019,30/04/2019,MONTHLY,100,100,,,SUM,
akshita2,mile1,Downloads,,1/9/2019,30/09/2019,MONTHLY,0,0,,,SUM,
akshita2,mile1,Downloads,,1/10/2019,31/10/2019,MONTHLY,0,0,,,SUM,
