[
  {
    "model": "domainlibraries.focusarea",
    "pk": 1,
    "fields": {
      "created_date": "2018-05-28T08:51:05.320Z",
      "created_by": "saikatdey",
      "updated_date": null,
      "updated_by": null,
      "focus_area_name": "Arts, Culture and Heritage"
    }
  },
  {
    "model": "domainlibraries.focusarea",
    "pk": 2,
    "fields": {
      "created_date": "2018-05-28T08:51:05.320Z",
      "created_by": "saikatdey",
      "updated_date": null,
      "updated_by": null,
      "focus_area_name": "Disaster Management"
    }
  },
  {
    "model": "domainlibraries.focusarea",
    "pk": 3,
    "fields": {
      "created_date": "2018-05-28T08:51:05.320Z",
      "created_by": "saikatdey",
      "updated_date": null,
      "updated_by": null,
      "focus_area_name": "Education"
    }
  },
  {
    "model": "domainlibraries.focusarea",
    "pk": 4,
    "fields": {
      "created_date": "2018-05-28T08:51:05.320Z",
      "created_by": "saikatdey",
      "updated_date": null,
      "updated_by": null,
      "focus_area_name": "Employment"
    }
  },
  {
    "model": "domainlibraries.focusarea",
    "pk": 5,
    "fields": {
      "created_date": "2018-05-28T08:51:05.320Z",
      "created_by": "saikatdey",
      "updated_date": null,
      "updated_by": null,
      "focus_area_name": "Environment"
    }
  },
  {
    "model": "domainlibraries.focusarea",
    "pk": 6,
    "fields": {
      "created_date": "2018-05-28T08:51:05.320Z",
      "created_by": "saikatdey",
      "updated_date": null,
      "updated_by": null,
      "focus_area_name": "Food and Agriculture"
    }
  },
  {
    "model": "domainlibraries.focusarea",
    "pk": 7,
    "fields": {
      "created_date": "2018-05-28T08:51:05.320Z",
      "created_by": "saikatdey",
      "updated_date": null,
      "updated_by": null,
      "focus_area_name": "Healthcare"
    }
  },
  {
    "model": "domainlibraries.focusarea",
    "pk": 8,
    "fields": {
      "created_date": "2018-05-28T08:51:05.320Z",
      "created_by": "saikatdey",
      "updated_date": null,
      "updated_by": null,
      "focus_area_name": "Human Rights"
    }
  },
  {
    "model": "domainlibraries.focusarea",
    "pk": 9,
    "fields": {
      "created_date": "2018-05-28T08:51:05.320Z",
      "created_by": "saikatdey",
      "updated_date": null,
      "updated_by": null,
      "focus_area_name": "Infrastructure"
    }
  }
]
