[
  {
    "model": "domainlibraries.subtargetsegment",
    "pk": 1,
    "fields": {
      "created_date": "2018-05-25T06:16:06.831Z",
      "created_by": "saikatdey",
      "updated_date": null,
      "updated_by": null,
      "target_segment": "People",
      "sub_target_segment": "Student (5-7 years)"
    }
  },
  {
    "model": "domainlibraries.subtargetsegment",
    "pk": 2,
    "fields": {
      "created_date": "2018-05-25T06:16:30.906Z",
      "created_by": "saikatdey",
      "updated_date": null,
      "updated_by": null,
      "target_segment": "People",
      "sub_target_segment": "Student (9-10 years)"
    }
  },
  {
    "model": "domainlibraries.subtargetsegment",
    "pk": 3,
    "fields": {
      "created_date": "2018-05-25T06:16:30.906Z",
      "created_by": "saikatdey",
      "updated_date": null,
      "updated_by": null,
      "target_segment": "Environment",
      "sub_target_segment": "Water"
    }
  },
  {
    "model": "domainlibraries.subtargetsegment",
    "pk": 4,
    "fields": {
      "created_date": "2018-05-25T06:16:30.906Z",
      "created_by": "saikatdey",
      "updated_date": null,
      "updated_by": null,
      "target_segment": "Environment",
      "sub_target_segment": "Waste"
    }
  }
]
