[
  {
    "model": "domainlibraries.aggregatefunction",
    "pk": 1,
    "fields": {
      "created_date": "2018-05-31T08:51:05.320Z",
      "created_by": "saikatdey",
      "updated_date": null,
      "updated_by": null,
      "agg_func": "SUM"
    }
  },
  {
    "model": "domainlibraries.aggregatefunction",
    "pk": 2,
    "fields": {
      "created_date": "2018-05-31T08:51:05.320Z",
      "created_by": "saikatdey",
      "updated_date": null,
      "updated_by": null,
      "agg_func": "COUNT"
    }
  },
  {
    "model": "domainlibraries.aggregatefunction",
    "pk": 3,
    "fields": {
      "created_date": "2018-05-31T08:51:05.320Z",
      "created_by": "saikatdey",
      "updated_date": null,
      "updated_by": null,
      "agg_func": "AVERAGE"
    }
  },
  {
    "model": "domainlibraries.aggregatefunction",
    "pk": 4,
    "fields": {
      "created_date": "2018-05-31T08:51:05.320Z",
      "created_by": "saikatdey",
      "updated_date": null,
      "updated_by": null,
      "agg_func": "STANDARD DEVIATION"
    }
  },
  {
    "model": "domainlibraries.aggregatefunction",
    "pk": 5,
    "fields": {
      "created_date": "2018-05-31T08:51:05.320Z",
      "created_by": "saikatdey",
      "updated_date": null,
      "updated_by": null,
      "agg_func": "MINIMUM"
    }
  },
  {
    "model": "domainlibraries.aggregatefunction",
    "pk": 6,
    "fields": {
      "created_date": "2018-05-31T08:51:05.320Z",
      "created_by": "saikatdey",
      "updated_date": null,
      "updated_by": null,
      "agg_func": "MAXIMUM"
    }
  }
]
