[
  {
    "model": "domainlibraries.mitigationstatus",
    "pk": 1,
    "fields": {
      "created_date": "2018-08-13T09:34:06.287Z",
      "created_by": "saikatdey",
      "updated_date": null,
      "updated_by": null,
      "mitigation_status": "Mitigation Suggested"
    }
  },
  {
    "model": "domainlibraries.mitigationstatus",
    "pk": 2,
    "fields": {
      "created_date": "2018-08-13T09:34:19.387Z",
      "created_by": "saikatdey",
      "updated_date": null,
      "updated_by": null,
      "mitigation_status": "Mitigation Implemented"
    }
  },
  {
    "model": "domainlibraries.mitigationstatus",
    "pk": 3,
    "fields": {
      "created_date": "2018-08-13T09:34:46.803Z",
      "created_by": "saikatdey",
      "updated_date": null,
      "updated_by": null,
      "mitigation_status": "Mitigation Not Suggested"
    }
  }
]
